1 10 20
100 200 125
201 210 89
900 1000 174
1 5 8
2 90 116
4 58 113
4 28 112
1 85 116
25 73 116
64 98 119
28 52 110
56 99 119
64 150 122
72 183 125
120 279 128
278 320 131
17 499 144
58 342 144
420 440 116
235 421 144
400 500 142
247 256 110
357 424 134
512 612 137
633 689 145
744 790 153
555 666 145
777 888 179
555 888 179
567 765 171
998 999 50
912 931 130
841 855 60
654 765 171
865 876 179
678 934 179
749 936 179
832 856 135
832 890 179
634 646 132
543 589 137
785 982 179
901 902 55
1000 1263 182
1252 1452 177
1268 1333 177
1389 1487 172
1325 1500 172
1295 1399 177
1084 1100 138
1082 1400 182
1162 1264 177
1100 1438 182
1203 1286 177
1348 1411 172
1355 1452 172
1362 1444 172
1054 1333 182
1496 1499 48
1423 1476 172
1258 1482 177
1392 1600 172
1247 1692 180
1500 1999 180
1576 1689 180
1798 1799 118
1567 1822 180
1521 1577 154
1634 1678 180
1689 1691 136
1600 1700 180
1700 1800 180
1800 1900 175
1501 1602 167
1603 1704 180
1777 1888 175
1888 1999 175
1987 1998 95
1578 1632 167
1621 1622 136
1644 1723 180
1755 1895 175
1875 1975 175
1 100000 351
40000 62995 340
75286 82678 351
38693 58205 340
27967 42299 324
59682 72995 335
27582 67295 340
12356 78910 351
74298 92385 351
38692 55902 340
67823 82375 351
74523 92372 351
12732 62728 340
19372 78267 351
57828 82372 351
28962 79283 351
38639 52725 340
49627 62328 340
5403 18325 279
18852 46927 324
4217 25277 282
42883 43484 257
26588 58483 340
23489 57602 340
10701 94503 351
32648 96501 351
11159 68698 340
17063 37850 324
23219 94630 351
32130 59958 340
23751 88490 351
27520 77910 351
47906 66771 340
29052 70972 340
55101 83322 351
24985 38674 324
30669 35524 311
38070 68509 340
20995 83261 351
39236 69764 340
49834 75696 340
3393 60456 340
25788 76395 340
52002 87150 351
76301 88335 351
28885 95656 351
11828 92492 351
22596 51302 324
25869 64542 340
41491 41893 257
8168 34257 311
62974 73862 330
14458 81735 351
36995 83920 351
56580 97658 351
95257 99955 328
62977 75130 330
18074 50450 324
7326 34902 311
51289 54641 340
43291 75101 340
26546 34385 311
41078 50520 314
19314 35084 311
52514 69209 340
27402 72540 340
46975 66157 340
3347 57716 340
9327 67794 340
41276 51791 314
51780 88479 351
15186 77944 351
30080 68051 340
6462 98637 351
