1 10 20
100 200 125
201 210 89
900 1000 174
1 5 8
37 92 116
12 500 144
33999 10024 308
31324 100000 351
76 2 116
10 10 7
2738 13043 268
2 3900 238
33 289 128
4 5 6
1 1 1
1000 1000 112
389 32 144
57 5794 238
20 5006 238
12 24532 282
875 874 117
120 4 119
1 100000 351
45 699 145
394 500 142
8 100 119
44444 11111 324
34 2098 182
458 309 144
95 433 144
578 48888 324
320 604 144
30 2992 217
473 421 129
1888 499 182
98 4777 238
396 20574 279
3849 64 238
27 58 113
49 23995 282
269 2222 182
43 954 179
2356 88888 351
4967 944 238
667 2364 183
4433 97396 351
49 3206 217
40 3032 217
688 688 34
50 50 25
499 499 49
68305 68305 87
3 4 8
4 3 8
4 5 6
5 4 6
2994 943 217
400 3 144
469 403 134
402 6488 262
6433 4 262
3064 8778 262
2309 8887 262
466 382 134
423 469 129
211 30 125
30 395 144
39 887 179
488 77663 351
32 745 171
1 213 125
53 309 128
498 377 142
395 4884 238
2 23 21
49 584 144
20 573 144
33 2356 183
50 4 112
84 29 116
405 4888 238
3 38 112
405 594 142
29 84 116
8 2773 209
85 403 144
23 47 112
55 8843 262
5 732 171
47 332 144
48 102 119
694 4322 238
4 554 144
99 99 26
49 384 144
85 32 116
4993 450 238
32 57 113
29 384 144
2 33 112
4052 472 238
48 6 112
487 7764 262
99 46132 324
8 44 112
999999 1 525
