1 10 20
100 200 125
201 210 89
900 1000 174
1 1 1
1 100000 351
1 100001 351
100000 1 351
100001 1 351
100000 100000 129
100001 100001 90
1 437298 449
2 1 2
23 61 113
61 59 33
100 99 26
101 521 144
521 2 144
521 11 144
100709 1 351
999 999 50
999999 1001 525
423 678 145
199 299 128
1001 101 179
1001 1 179
1001 521 179
10000 2 262
2 10000 262
500 623 137
512 888 179
3041 1 217
12345 54321 340
9090 909 262
111 111 70
1111 9999 262
54321 5 340
42 420 144
420 42 144
1 9 20
400 16 144
420 69 144
666 123 145
321 999 179
104500 4 351
4 300000 443
1 1 1
505 50961 324
888 8888 262
11111 11110 131
101 1010 179
42220 4442 324
90807 7 351
71 7991 262
2 90870 351
24 36 112
198 338 144
778 22 171
2 2 2
2 50 112
100 1 119
80 79 36
79 83 111
500 450 142
900 125 179
125 1000 179
3000 3001 49
5467 1213 238
1211 1121 182
1121 1211 182
98 25 119
69 420 144
72 42 113
444 4444 238
9 90 116
90 9 116
28 56 113
64 66 28
7 700 145
70 700 145
700 7 145
700 700 83
8 10 20
1231 1234 133
432 992 179
767 293 171
9121 112 262
223 443 144
467 777 171
778 877 179
888 888 73
169 1420 182
599 598 119
598 606 119
22 44 112
41 82 116
2222 2222 33
26 6200 262
6020 2060 238
50 50 25
333 313 144
343 733 171
2 8 17
15 45 112
567 789 171
1 999999 525
